@startuml
title Starter Service Sequence Diagram
box "VA Mobile \nEnvironment\n" #LightBlue
participant "Another \nService" as as
participant "starter-service-ls" as starterSvc
end box
box "External \nEnvironment"
participant "External Application" as extApp
end box

group Valid Request
as -> starterSvc ++ #lightGreen: GET \n**/starter/v1/param={sampleParam}**
starterSvc -> extApp ++ #salmon: GET \n**/extApp/v1/resource/{sampleParam}**
extApp -> starterSvc --: HTTP status 200 (Ok)
starterSvc -> starterSvc: More validation
starterSvc -> extApp ++ #salmon: POST \n**/extApp/v1/do/**
extApp -> starterSvc  --: HTTP status 200 (Ok) \n - **x-vamf-jwt: {jwt}** \n - **anotherVar: {sampleValue}**
starterSvc -> as --: HTTP status 200 (Ok)
end

group Failed Request
as -> starterSvc ++ #lightGreen: GET \n**/starter/v1/param={sampleParam}**
starterSvc -> extApp ++ #salmon: POST \n**/extApp/v1/do/**
extApp -> starterSvc  --: HTTP status 401 (Unauthorized) \n - **x-vamf-jwt: null** \n - **errorCode: {errorCode}**
starterSvc -> as --: HTTP status 401 (Unauthorized)
end
@enduml